{
	"pd": "http://pd.owlgaming.net",
	"firearms": "https://pd.owlgaming.net/threads/firearms-licensing-information.22906/",

	"gov": "/f/257",
	"laws": "/50899",

	"fd": "http://dps.owlgaming.net",

	"rules": "/f/194",
	"news": "/f/281",
	"script": "/f/196",
	"skins": "https://owlgaming.net/library/skins",
	"vehs": "https://owlgaming.net/library/vehicles",
	"ints": "https://owlgaming.net/library/interiors",

	"fb": "http://findbook.owlgaming.net",
	"fbp": "http://findbook.owlgaming.net",
	"fbg": "http://findbook.owlgaming.net",

	"bug": "https://bugs.owlgaming.net/",
	"dev": "http://dev.owlgaming.net/",
	"t": "https://owlgaming.net/support/",
	"d": "https://discord.gg/2hS2FQQ",
	"discord": "https://discord.gg/2hS2FQQ"
}
